<?xml version='1.0' encoding='UTF-8'?>
<!-- This file was generated by dvisvgm 3.0.3 -->
<svg version='1.1' xmlns='http://www.w3.org/2000/svg' xmlns:xlink='http://www.w3.org/1999/xlink' width='226.772pt' height='27.384pt' viewBox='0 -27.384 226.772 27.384'>
<g id='page3'>
<g transform='matrix(1 0 0 -1 0 0)'>
<path d='M36.9302 3.494556L25.3308 23.6202C24.4383 25.1571 22.183 25.1817 21.2908 23.6202L9.691151 3.494556C8.798964 1.95799 9.914276-.00013 11.69865-.00013H34.9227C36.7071-.00013 37.8227 1.95799 36.9302 3.494556ZM23.2983 7.65862C24.5377 7.65862 25.529 6.66706 25.529 5.42768C25.529 4.18862 24.5377 3.197056 23.2983 3.197056C22.059 3.197056 21.0924 4.18862 21.0924 5.42768C21.0924 6.66706 22.059 7.65862 23.2983 7.65862ZM21.1915 15.6642C21.1668 15.9864 21.4643 16.2589 21.7865 16.2589H24.8349C25.1571 16.2589 25.4546 15.9864 25.4299 15.6642L25.058 9.07112C25.0333 8.77393 24.7855 8.52612 24.488 8.52612H22.1333C21.8362 8.52612 21.588 8.77393 21.5633 9.07112L21.1915 15.6642Z' fill='#bc6700'/>
<path d='M46.621093 0H48.61719V27.3828H46.621093Z' fill='#bc6700'/>
<path d='M57.34239 25.20953C57.25864 25.43672 57.24676 25.43672 56.97177 25.43672H55.118953V25.08984H55.358015C56.21864 25.08984 56.25458 24.97047 56.25458 24.52828V18.50328C56.25458 18.180466 56.25458 17.618591 55.118953 17.618591V17.272029C55.42989 17.296091 56.06333 17.296091 56.39802 17.296091C56.7327 17.296091 57.36645 17.296091 57.67708 17.272029V17.618591C56.54145 17.618591 56.54145 18.180466 56.54145 18.50328V25.03015H56.55333L59.43427 17.499216C59.48208 17.367654 59.51801 17.272029 59.6377 17.272029C59.7452 17.272029 59.76927 17.331716 59.84083 17.511091L62.74583 25.08984H62.7577V18.180466C62.7577 17.738279 62.72177 17.618591 61.86114 17.618591H61.62208V17.272029C61.89708 17.296091 62.85333 17.296091 63.19989 17.296091C63.54676 17.296091 64.50302 17.296091 64.778 17.272029V17.618591H64.53895C63.67802 17.618591 63.64239 17.738279 63.64239 18.180466V24.52828C63.64239 24.97047 63.67802 25.08984 64.53895 25.08984H64.778V25.43672H62.92489C62.66208 25.43672 62.6502 25.42484 62.55458 25.19765L59.94833 18.39578L57.34239 25.20953ZM69.9336 20.4639C69.9336 21.10922 69.9336 21.58734 69.4076 22.05359C68.9892 22.43609 68.4511 22.60359 67.9251 22.60359C66.9448 22.60359 66.1917 21.95797 66.1917 21.18109C66.1917 20.83422 66.4189 20.66703 66.6939 20.66703C66.9807 20.66703 67.1839 20.87015 67.1839 21.15703C67.1839 21.64734 66.7536 21.64734 66.5745 21.64734C66.8492 22.14922 67.4232 22.36453 67.9014 22.36453C68.4511 22.36453 69.1564 21.91015 69.1564 20.83422V20.35609C66.7536 20.32047 65.8451 19.31609 65.8451 18.39578C65.8451 17.451404 66.9448 17.152341 67.6742 17.152341C68.4632 17.152341 69.0011 17.630779 69.2282 18.204529C69.2761 17.642654 69.6467 17.212341 70.1604 17.212341C70.4117 17.212341 71.1048 17.379529 71.1048 18.33609V19.00547H70.842V18.33609C70.842 17.654529 70.5551 17.558904 70.3876 17.558904C69.9336 17.558904 69.9336 18.192341 69.9336 18.37172V20.4639ZM69.1564 18.95765C69.1564 17.786091 68.2839 17.391716 67.7698 17.391716C67.1839 17.391716 66.6939 17.822029 66.6939 18.39578C66.6939 19.97359 68.7261 20.11703 69.1564 20.14109V18.95765ZM73.1686 20.05734C73.1686 21.21703 73.6468 22.30484 74.5674 22.30484C74.663 22.30484 74.6868 22.30484 74.7346 22.29265C74.639 22.24484 74.4477 22.17328 74.4477 21.85047C74.4477 21.5039 74.7227 21.37234 74.914 21.37234C75.153 21.37234 75.3921 21.52765 75.3921 21.85047C75.3921 22.20922 75.0693 22.5439 74.5555 22.5439C73.5393 22.5439 73.1927 21.4439 73.1208 21.21703H73.109V22.5439L71.5071 22.41234V22.06547C72.3199 22.06547 72.4155 21.98203 72.4155 21.39609V18.156716C72.4155 17.618591 72.2843 17.618591 71.5071 17.618591V17.272029C71.8418 17.296091 72.4993 17.296091 72.858 17.296091C73.1808 17.296091 74.0293 17.296091 74.3043 17.272029V17.618591H74.0652C73.1927 17.618591 73.1686 17.750154 73.1686 18.180466V20.05734ZM80.0524 21.69515C79.909 21.69515 79.4665 21.69515 79.4665 21.20484C79.4665 20.91797 79.6699 20.71484 79.9568 20.71484C80.2315 20.71484 80.4586 20.88203 80.4586 21.2289C80.4586 22.02984 79.6218 22.60359 78.6536 22.60359C77.2549 22.60359 76.1433 21.36047 76.1433 19.85422C76.1433 18.3239 77.2908 17.152341 78.6418 17.152341C80.2196 17.152341 80.5783 18.58703 80.5783 18.69453S80.4946 18.80203 80.4586 18.80203C80.3511 18.80203 80.3393 18.7664 80.3033 18.62297C80.0402 17.774216 79.3949 17.415466 78.7493 17.415466C78.0202 17.415466 77.0518 18.048904 77.0518 19.86609C77.0518 21.85047 78.068 22.34047 78.6655 22.34047C79.1199 22.34047 79.7774 22.16109 80.0524 21.69515ZM85.5062 20.04547C85.769 20.04547 85.7931 20.04547 85.7931 20.27265C85.7931 21.47984 85.1475 22.60359 83.7012 22.60359C82.3384 22.60359 81.2865 21.37234 81.2865 19.88984C81.2865 18.31203 82.5056 17.152341 83.8325 17.152341C85.2553 17.152341 85.7931 18.44359 85.7931 18.69453C85.7931 18.7664 85.7334 18.81422 85.6615 18.81422C85.5659 18.81422 85.5422 18.75422 85.5181 18.69453C85.2075 17.690466 84.4065 17.415466 83.9043 17.415466C83.4022 17.415466 82.195 17.750154 82.195 19.81828V20.04547H85.5062ZM82.2068 20.27265C82.3025 22.14922 83.3543 22.36453 83.689 22.36453C84.9684 22.36453 85.04 20.6789 85.0518 20.27265H82.2068ZM88.1869 25.56828L86.525 25.43672V25.08984C87.3382 25.08984 87.4338 25.0064 87.4338 24.42047V18.156716C87.4338 17.618591 87.3022 17.618591 86.525 17.618591V17.272029C86.8597 17.296091 87.4457 17.296091 87.8041 17.296091C88.1629 17.296091 88.7607 17.296091 89.0954 17.272029V17.618591C88.3304 17.618591 88.1869 17.618591 88.1869 18.156716V25.56828Z'/>
<path d='M97.1847 22.32859C97.1847 22.5439 97.1847 22.60359 97.065 22.60359C96.9694 22.60359 96.7425 22.34047 96.6588 22.23297C96.2882 22.53172 95.9175 22.60359 95.535 22.60359C94.0885 22.60359 93.6582 21.81453 93.6582 21.15703C93.6582 21.02547 93.6582 20.60734 94.1125 20.1889C94.495 19.85422 94.9016 19.77047 95.4513 19.66297C96.1088 19.5314 96.2644 19.49547 96.5632 19.2564C96.7782 19.07703 96.9338 18.81422 96.9338 18.47953C96.9338 17.965466 96.6347 17.391716 95.5829 17.391716C94.7938 17.391716 94.22 17.845779 93.9572 19.04109C93.9094 19.2564 93.9094 19.26828 93.8972 19.28047C93.8735 19.32828 93.8257 19.32828 93.7897 19.32828C93.6582 19.32828 93.6582 19.26828 93.6582 19.05328V17.427341C93.6582 17.212341 93.6582 17.152341 93.7779 17.152341C93.8375 17.152341 93.8494 17.164529 94.0529 17.415466C94.1125 17.499216 94.1125 17.522966 94.2919 17.714216C94.746 17.152341 95.3916 17.152341 95.5947 17.152341C96.85 17.152341 97.4716 17.845779 97.4716 18.79015C97.4716 19.43578 97.0772 19.81828 96.9694 19.92578C96.5391 20.2964 96.2166 20.36828 95.4275 20.51172C95.0688 20.58328 94.1963 20.75078 94.1963 21.46797C94.1963 21.83859 94.4472 22.38828 95.5232 22.38828C96.826 22.38828 96.8979 21.27672 96.9216 20.90609C96.9338 20.81047 97.0172 20.81047 97.0532 20.81047C97.1847 20.81047 97.1847 20.87015 97.1847 21.08547V22.32859ZM102.4593 20.04547C102.7221 20.04547 102.7461 20.04547 102.7461 20.27265C102.7461 21.47984 102.1005 22.60359 100.6543 22.60359C99.2915 22.60359 98.2396 21.37234 98.2396 19.88984C98.2396 18.31203 99.4586 17.152341 100.7855 17.152341C102.2083 17.152341 102.7461 18.44359 102.7461 18.69453C102.7461 18.7664 102.6865 18.81422 102.6146 18.81422C102.519 18.81422 102.4952 18.75422 102.4711 18.69453C102.1605 17.690466 101.3596 17.415466 100.8574 17.415466S99.148 17.750154 99.148 19.81828V20.04547H102.4593ZM99.1599 20.27265C99.2555 22.14922 100.3074 22.36453 100.6421 22.36453C101.9215 22.36453 101.993 20.6789 102.0049 20.27265H99.1599Z'/>
<path d='M111.3132 21.69515C111.1697 21.69515 110.7272 21.69515 110.7272 21.20484C110.7272 20.91797 110.9307 20.71484 111.2175 20.71484C111.4922 20.71484 111.7194 20.88203 111.7194 21.2289C111.7194 22.02984 110.8825 22.60359 109.9144 22.60359C108.5157 22.60359 107.4041 21.36047 107.4041 19.85422C107.4041 18.3239 108.5516 17.152341 109.9025 17.152341C111.4804 17.152341 111.8391 18.58703 111.8391 18.69453S111.7554 18.80203 111.7194 18.80203C111.6119 18.80203 111.6 18.7664 111.5641 18.62297C111.301 17.774216 110.6557 17.415466 110.01 17.415466C109.281 17.415466 108.3125 18.048904 108.3125 19.86609C108.3125 21.85047 109.3288 22.34047 109.9263 22.34047C110.3807 22.34047 111.0382 22.16109 111.3132 21.69515ZM117.6754 19.83015C117.6754 21.37234 116.5039 22.60359 115.1173 22.60359C113.6829 22.60359 112.5473 21.3364 112.5473 19.83015C112.5473 18.30015 113.7426 17.152341 115.1054 17.152341C116.5161 17.152341 117.6754 18.3239 117.6754 19.83015ZM115.1173 17.415466C114.6751 17.415466 114.137 17.606716 113.7904 18.192341C113.4676 18.73047 113.4558 19.43578 113.4558 19.93765C113.4558 20.39203 113.4558 21.12109 113.8264 21.65922C114.1611 22.17328 114.687 22.36453 115.1054 22.36453C115.5717 22.36453 116.0736 22.14922 116.3964 21.68297C116.767 21.13328 116.767 20.38015 116.767 19.93765C116.767 19.51953 116.767 18.77828 116.4561 18.216404C116.1214 17.642654 115.5717 17.415466 115.1173 17.415466ZM121.6758 22.41234V22.06547C122.4886 22.06547 122.5843 21.98203 122.5843 21.39609V19.2564C122.5843 18.240154 122.0465 17.391716 121.1499 17.391716C120.1696 17.391716 120.1099 17.953279 120.1099 18.58703V22.5439L118.4243 22.41234V22.06547C119.3327 22.06547 119.3327 22.02984 119.3327 20.96578V19.17265C119.3327 18.43172 119.3327 18.001091 119.6914 17.606716C119.9783 17.296091 120.4683 17.152341 121.078 17.152341C121.2815 17.152341 121.664 17.152341 122.0702 17.499216C122.4171 17.774216 122.6083 18.228279 122.6083 18.228279V17.152341L124.2699 17.272029V17.618591C123.4571 17.618591 123.3615 17.702341 123.3615 18.28828V22.5439L121.6758 22.41234ZM128.8729 21.69515C128.7294 21.69515 128.2869 21.69515 128.2869 21.20484C128.2869 20.91797 128.4904 20.71484 128.7772 20.71484C129.0519 20.71484 129.2791 20.88203 129.2791 21.2289C129.2791 22.02984 128.4422 22.60359 127.4741 22.60359C126.0754 22.60359 124.9638 21.36047 124.9638 19.85422C124.9638 18.3239 126.1113 17.152341 127.4622 17.152341C129.04 17.152341 129.3988 18.58703 129.3988 18.69453S129.315 18.80203 129.2791 18.80203C129.1716 18.80203 129.1597 18.7664 129.1238 18.62297C128.8607 17.774216 128.2154 17.415466 127.5697 17.415466C126.8407 17.415466 125.8722 18.048904 125.8722 19.86609C125.8722 21.85047 126.8885 22.34047 127.486 22.34047C127.9404 22.34047 128.5979 22.16109 128.8729 21.69515Z'/>
<path d='M134.7206 20.17672C134.7206 21.28859 134.7206 21.62328 134.4456 22.00578C134.0987 22.47203 133.5372 22.5439 133.1306 22.5439C132.1025 22.5439 131.6243 21.76672 131.4572 21.39609H131.445V25.56828L129.7834 25.43672V25.08984C130.5962 25.08984 130.6918 25.0064 130.6918 24.42047V18.156716C130.6918 17.618591 130.5606 17.618591 129.7834 17.618591V17.272029C130.0943 17.296091 130.7397 17.296091 131.0743 17.296091C131.4212 17.296091 132.0665 17.296091 132.3775 17.272029V17.618591C131.6125 17.618591 131.469 17.618591 131.469 18.156716V20.38015C131.469 21.63515 132.2937 22.30484 133.035 22.30484C133.7762 22.30484 133.9434 21.69515 133.9434 20.96578V18.156716C133.9434 17.618591 133.8118 17.618591 133.035 17.618591V17.272029C133.3459 17.296091 133.9912 17.296091 134.3259 17.296091C134.6728 17.296091 135.3181 17.296091 135.629 17.272029V17.618591C135.0312 17.618591 134.7325 17.618591 134.7206 17.977341V20.17672ZM140.4829 20.04547C140.7457 20.04547 140.7698 20.04547 140.7698 20.27265C140.7698 21.47984 140.1242 22.60359 138.6779 22.60359C137.3151 22.60359 136.2632 21.37234 136.2632 19.88984C136.2632 18.31203 137.4823 17.152341 138.8092 17.152341C140.232 17.152341 140.7698 18.44359 140.7698 18.69453C140.7698 18.7664 140.7101 18.81422 140.6382 18.81422C140.5426 18.81422 140.5189 18.75422 140.4948 18.69453C140.1842 17.690466 139.3833 17.415466 138.8811 17.415466S137.1717 17.750154 137.1717 19.81828V20.04547H140.4829ZM137.1836 20.27265C137.2792 22.14922 138.3311 22.36453 138.6657 22.36453C139.9451 22.36453 140.0167 20.6789 140.0286 20.27265H137.1836Z'/>
<path d='M148.5957 25.43672V25.08984C149.4086 25.08984 149.5042 25.0064 149.5042 24.42047V21.77859C149.2532 22.12547 148.7392 22.5439 148.0101 22.5439C146.6233 22.5439 145.4279 21.37234 145.4279 19.84203C145.4279 18.3239 146.5636 17.152341 147.8786 17.152341C148.787 17.152341 149.3129 17.750154 149.4804 17.977341V17.152341L151.1657 17.272029V17.618591C150.3529 17.618591 150.2573 17.702341 150.2573 18.28828V25.56828L148.5957 25.43672ZM149.4804 18.67078C149.4804 18.45547 149.4804 18.41953 149.3129 18.156716C149.0261 17.738279 148.5361 17.391716 147.9383 17.391716C147.6273 17.391716 146.3364 17.511091 146.3364 19.83015C146.3364 20.69078 146.4798 21.1689 146.7429 21.56359C146.982 21.93422 147.4601 22.30484 148.0579 22.30484C148.7989 22.30484 149.2173 21.76672 149.337 21.57547C149.4804 21.37234 149.4804 21.34828 149.4804 21.13328V18.67078ZM156.092 20.04547C156.354 20.04547 156.378 20.04547 156.378 20.27265C156.378 21.47984 155.733 22.60359 154.2865 22.60359C152.9237 22.60359 151.8718 21.37234 151.8718 19.88984C151.8718 18.31203 153.0909 17.152341 154.4178 17.152341C155.841 17.152341 156.378 18.44359 156.378 18.69453C156.378 18.7664 156.319 18.81422 156.247 18.81422C156.151 18.81422 156.127 18.75422 156.103 18.69453C155.793 17.690466 154.992 17.415466 154.4897 17.415466C153.9875 17.415466 152.7803 17.750154 152.7803 19.81828V20.04547H156.092ZM152.7922 20.27265C152.8878 22.14922 153.9397 22.36453 154.2743 22.36453C155.554 22.36453 155.625 20.6789 155.637 20.27265H152.7922Z'/>
<path d='M162.602 25.56828L160.941 25.43672V25.08984C161.754 25.08984 161.849 25.0064 161.849 24.42047V17.272029H162.112C162.16 17.367654 162.495 17.965466 162.543 18.048904C162.818 17.606716 163.332 17.152341 164.097 17.152341C165.471 17.152341 166.679 18.31203 166.679 19.85422C166.679 21.37234 165.555 22.5439 164.228 22.5439C163.571 22.5439 163.009 22.24484 162.602 21.74297V25.56828ZM162.626 21.09734C162.626 21.31265 162.626 21.3364 162.758 21.52765C163.045 21.95797 163.571 22.30484 164.156 22.30484C164.515 22.30484 165.77 22.16109 165.77 19.86609C165.77 19.06515 165.651 18.56297 165.364 18.132654C165.125 17.762029 164.647 17.391716 164.049 17.391716C163.403 17.391716 162.985 17.809841 162.782 18.132654C162.626 18.3839 162.626 18.43172 162.626 18.63484V21.09734Z'/>
<path d='M172.916 19.83015C172.916 21.37234 171.744 22.60359 170.358 22.60359C168.923 22.60359 167.788 21.3364 167.788 19.83015C167.788 18.30015 168.983 17.152341 170.346 17.152341C171.756 17.152341 172.916 18.3239 172.916 19.83015ZM170.358 17.415466C169.916 17.415466 169.377 17.606716 169.031 18.192341C168.708 18.73047 168.696 19.43578 168.696 19.93765C168.696 20.39203 168.696 21.12109 169.067 21.65922C169.401 22.17328 169.927 22.36453 170.346 22.36453C170.812 22.36453 171.314 22.14922 171.637 21.68297C172.007 21.13328 172.007 20.38015 172.007 19.93765C172.007 19.51953 172.007 18.77828 171.696 18.216404C171.362 17.642654 170.812 17.415466 170.358 17.415466ZM178.602 20.17672C178.602 21.28859 178.602 21.62328 178.327 22.00578C177.98 22.47203 177.418 22.5439 177.012 22.5439C175.852 22.5439 175.398 21.55172 175.302 21.31265H175.291V22.5439L173.665 22.41234V22.06547C174.477 22.06547 174.573 21.98203 174.573 21.39609V18.156716C174.573 17.618591 174.442 17.618591 173.665 17.618591V17.272029C173.976 17.296091 174.621 17.296091 174.956 17.296091C175.302 17.296091 175.948 17.296091 176.259 17.272029V17.618591C175.494 17.618591 175.35 17.618591 175.35 18.156716V20.38015C175.35 21.63515 176.175 22.30484 176.916 22.30484S177.825 21.69515 177.825 20.96578V18.156716C177.825 17.618591 177.693 17.618591 176.916 17.618591V17.272029C177.227 17.296091 177.872 17.296091 178.207 17.296091C178.554 17.296091 179.199 17.296091 179.51 17.272029V17.618591C178.912 17.618591 178.614 17.618591 178.602 17.977341V20.17672ZM185.105 20.17672C185.105 21.28859 185.105 21.62328 184.83 22.00578C184.484 22.47203 183.922 22.5439 183.515 22.5439C182.356 22.5439 181.902 21.55172 181.806 21.31265H181.794V22.5439L180.168 22.41234V22.06547C180.981 22.06547 181.077 21.98203 181.077 21.39609V18.156716C181.077 17.618591 180.945 17.618591 180.168 17.618591V17.272029C180.479 17.296091 181.125 17.296091 181.459 17.296091C181.806 17.296091 182.451 17.296091 182.762 17.272029V17.618591C181.997 17.618591 181.854 17.618591 181.854 18.156716V20.38015C181.854 21.63515 182.679 22.30484 183.42 22.30484S184.328 21.69515 184.328 20.96578V18.156716C184.328 17.618591 184.197 17.618591 183.42 17.618591V17.272029C183.731 17.296091 184.376 17.296091 184.711 17.296091C185.058 17.296091 185.703 17.296091 186.014 17.272029V17.618591C185.416 17.618591 185.117 17.618591 185.105 17.977341V20.17672ZM190.868 20.04547C191.131 20.04547 191.155 20.04547 191.155 20.27265C191.155 21.47984 190.509 22.60359 189.063 22.60359C187.7 22.60359 186.648 21.37234 186.648 19.88984C186.648 18.31203 187.867 17.152341 189.194 17.152341C190.617 17.152341 191.155 18.44359 191.155 18.69453C191.155 18.7664 191.095 18.81422 191.023 18.81422C190.927 18.81422 190.904 18.75422 190.88 18.69453C190.569 17.690466 189.768 17.415466 189.266 17.415466S187.557 17.750154 187.557 19.81828V20.04547H190.868ZM187.568 20.27265C187.664 22.14922 188.716 22.36453 189.051 22.36453C190.33 22.36453 190.402 20.6789 190.413 20.27265H187.568Z'/>
<path d='M200.709 20.17672C200.709 21.28859 200.709 21.62328 200.434 22.00578C200.087 22.47203 199.525 22.5439 199.119 22.5439C198.091 22.5439 197.612 21.76672 197.445 21.39609H197.433V25.56828L195.772 25.43672V25.08984C196.584 25.08984 196.68 25.0064 196.68 24.42047V18.156716C196.68 17.618591 196.549 17.618591 195.772 17.618591V17.272029C196.082 17.296091 196.728 17.296091 197.062 17.296091C197.409 17.296091 198.055 17.296091 198.366 17.272029V17.618591C197.601 17.618591 197.457 17.618591 197.457 18.156716V20.38015C197.457 21.63515 198.282 22.30484 199.023 22.30484S199.932 21.69515 199.932 20.96578V18.156716C199.932 17.618591 199.8 17.618591 199.023 17.618591V17.272029C199.334 17.296091 199.979 17.296091 200.314 17.296091C200.661 17.296091 201.306 17.296091 201.617 17.272029V17.618591C201.019 17.618591 200.721 17.618591 200.709 17.977341V20.17672ZM206.471 20.04547C206.734 20.04547 206.758 20.04547 206.758 20.27265C206.758 21.47984 206.112 22.60359 204.666 22.60359C203.303 22.60359 202.251 21.37234 202.251 19.88984C202.251 18.31203 203.47 17.152341 204.797 17.152341C206.22 17.152341 206.758 18.44359 206.758 18.69453C206.758 18.7664 206.698 18.81422 206.626 18.81422C206.531 18.81422 206.507 18.75422 206.483 18.69453C206.172 17.690466 205.371 17.415466 204.869 17.415466S203.16 17.750154 203.16 19.81828V20.04547H206.471ZM203.172 20.27265C203.267 22.14922 204.319 22.36453 204.654 22.36453C205.933 22.36453 206.005 20.6789 206.017 20.27265H203.172ZM210.73 22.41234V22.06547C211.542 22.06547 211.638 21.98203 211.638 21.39609V19.2564C211.638 18.240154 211.1 17.391716 210.204 17.391716C209.223 17.391716 209.164 17.953279 209.164 18.58703V22.5439L207.478 22.41234V22.06547C208.386 22.06547 208.386 22.02984 208.386 20.96578V19.17265C208.386 18.43172 208.386 18.001091 208.745 17.606716C209.032 17.296091 209.522 17.152341 210.132 17.152341C210.335 17.152341 210.718 17.152341 211.124 17.499216C211.471 17.774216 211.662 18.228279 211.662 18.228279V17.152341L213.324 17.272029V17.618591C212.511 17.618591 212.415 17.702341 212.415 18.28828V22.5439L210.73 22.41234ZM215.595 20.05734C215.595 21.21703 216.073 22.30484 216.994 22.30484C217.09 22.30484 217.113 22.30484 217.161 22.29265C217.066 22.24484 216.874 22.17328 216.874 21.85047C216.874 21.5039 217.149 21.37234 217.341 21.37234C217.58 21.37234 217.819 21.52765 217.819 21.85047C217.819 22.20922 217.496 22.5439 216.982 22.5439C215.966 22.5439 215.619 21.4439 215.548 21.21703H215.536V22.5439L213.934 22.41234V22.06547C214.747 22.06547 214.842 21.98203 214.842 21.39609V18.156716C214.842 17.618591 214.711 17.618591 213.934 17.618591V17.272029C214.268 17.296091 214.926 17.296091 215.285 17.296091C215.608 17.296091 216.456 17.296091 216.731 17.272029V17.618591H216.492C215.619 17.618591 215.595 17.750154 215.595 18.180466V20.05734Z'/>
<path d='M222.706 20.04547C222.968 20.04547 222.992 20.04547 222.992 20.27265C222.992 21.47984 222.347 22.60359 220.901 22.60359C219.538 22.60359 218.486 21.37234 218.486 19.88984C218.486 18.31203 219.705 17.152341 221.032 17.152341C222.455 17.152341 222.992 18.44359 222.992 18.69453C222.992 18.7664 222.933 18.81422 222.861 18.81422C222.765 18.81422 222.741 18.75422 222.717 18.69453C222.407 17.690466 221.606 17.415466 221.104 17.415466C220.601 17.415466 219.394 17.750154 219.394 19.81828V20.04547H222.706ZM219.406 20.27265C219.502 22.14922 220.554 22.36453 220.888 22.36453C222.168 22.36453 222.239 20.6789 222.251 20.27265H219.406ZM225.53 17.857654C225.53 18.180466 225.255 18.43172 224.956 18.43172C224.609 18.43172 224.37 18.156716 224.37 17.857654C224.37 17.499216 224.669 17.272029 224.944 17.272029C225.267 17.272029 225.53 17.522966 225.53 17.857654Z'/>
</g>
</g>
</svg>