<?xml version='1.0' encoding='UTF-8'?>
<!-- This file was generated by dvisvgm 3.0.3 -->
<svg version='1.1' xmlns='http://www.w3.org/2000/svg' xmlns:xlink='http://www.w3.org/1999/xlink' width='29.841pt' height='5.147pt' viewBox='0 -5.147 29.841 5.147'>
<g id='page1'>
<g transform='matrix(1 0 0 -1 0 0)'>
<path d='M3.59812 1.4225C3.53844 1.21938 3.53844 1.19531 3.37094 .968125C3.10812 .633438 2.58219 .119687 2.02031 .119687C1.53 .119687 1.25531 .561875 1.25531 1.26719C1.25531 1.92469 1.62563 3.26344 1.85281 3.76563C2.25938 4.60219 2.82125 5.03281 3.2875 5.03281C4.07625 5.03281 4.23187 4.0525 4.23187 3.95688C4.23187 3.945 4.19594 3.78938 4.18406 3.76563L3.59812 1.4225ZM4.36312 4.48281C4.23187 4.79344 3.90906 5.27187 3.2875 5.27187C1.93656 5.27187 .478125 3.52656 .478125 1.75719C.478125 .57375 1.17156-.119687 1.98438-.119687C2.64188-.119687 3.20375 .394375 3.53844 .789063C3.65781 .08375 4.21969-.119687 4.57844-.119687S5.22406 .095625 5.43906 .525937C5.63031 .9325 5.79781 1.66156 5.79781 1.70938C5.79781 1.76906 5.75 1.81687 5.67812 1.81687C5.57062 1.81687 5.55875 1.75719 5.51094 1.57781C5.33156 .8725 5.10437 .119687 4.61438 .119687C4.2675 .119687 4.24375 .430313 4.24375 .669375C4.24375 .944375 4.27969 1.07594 4.38719 1.54219C4.47094 1.84094 4.53062 2.10406 4.62625 2.45062C5.06844 4.24375 5.17625 4.67406 5.17625 4.74563C5.17625 4.91313 5.04469 5.04469 4.86531 5.04469C4.48281 5.04469 4.38719 4.62625 4.36312 4.48281Z'/>
<path d='M10.3407 .57375C10.3407 .920313 10.0535 1.15969 9.76664 1.15969C9.42008 1.15969 9.18102 .8725 9.18102 .585625C9.18102 .239063 9.46789 0 9.75477 0C10.1013 0 10.3407 .286875 10.3407 .57375Z'/>
<path d='M15.5753 .57375C15.5753 .920313 15.2881 1.15969 15.0013 1.15969C14.6547 1.15969 14.4156 .8725 14.4156 .585625C14.4156 .239063 14.7025 0 14.9894 0C15.3359 0 15.5753 .286875 15.5753 .57375Z'/>
<path d='M20.8218 .57375C20.8218 .920313 20.5346 1.15969 20.2477 1.15969C19.9012 1.15969 19.6621 .8725 19.6621 .585625C19.6621 .239063 19.949 0 20.2359 0C20.5824 0 20.8218 .286875 20.8218 .57375Z'/>
<path d='M25.3868 .968125C25.9009 1.55406 26.3193 1.92469 26.9171 2.4625C27.6343 3.08406 27.9449 3.38313 28.1124 3.56219C28.9493 4.38719 29.3674 5.08063 29.3674 5.17625S29.2718 5.27187 29.248 5.27187C29.1643 5.27187 29.1405 5.22406 29.0805 5.14031C28.7818 4.62625 28.4949 4.37531 28.184 4.37531C27.933 4.37531 27.8015 4.48281 27.5743 4.76969C27.3234 5.06844 27.1202 5.27187 26.7734 5.27187C25.9009 5.27187 25.3749 4.18406 25.3749 3.93281C25.3749 3.89687 25.3868 3.82531 25.4943 3.82531C25.5899 3.82531 25.6021 3.87313 25.6377 3.95688C25.8412 4.435 26.4149 4.51875 26.6421 4.51875C26.893 4.51875 27.1321 4.435 27.383 4.3275C27.8374 4.13625 28.0287 4.13625 28.1484 4.13625C28.2318 4.13625 28.2796 4.13625 28.3396 4.14813C27.9449 3.68187 27.2996 3.10812 26.7615 2.61781L25.5543 1.50625C24.8249 .765 24.3827 .059687 24.3827-.024063C24.3827-.095625 24.4424-.119687 24.5143-.119687C24.5859-.119687 24.5977-.1075 24.6815 .035937C24.8727 .334688 25.2552 .776875 25.6977 .776875C25.9487 .776875 26.0684 .693438 26.3074 .394375C26.5343 .131563 26.7377-.119687 27.1202-.119687C28.2918-.119687 28.9612 1.39875 28.9612 1.67344C28.9612 1.72125 28.9493 1.79313 28.8296 1.79313C28.734 1.79313 28.7221 1.74531 28.6862 1.62563C28.423 .920313 27.7177 .633438 27.2518 .633438C27.0005 .633438 26.7615 .717188 26.5105 .824687C26.0324 1.01625 25.9009 1.01625 25.7455 1.01625C25.6259 1.01625 25.4943 1.01625 25.3868 .968125Z'/>
</g>
</g>
</svg>