<?xml version='1.0' encoding='UTF-8'?>
<!-- This file was generated by dvisvgm 3.0.3 -->
<svg version='1.1' xmlns='http://www.w3.org/2000/svg' xmlns:xlink='http://www.w3.org/1999/xlink' width='29.841pt' height='15.11pt' viewBox='0 -15.11 29.841 15.11'>
<g id='page4'>
<g transform='matrix(1 0 0 -1 0 0)'>
<path d='M3.59812 1.4225C3.53844 1.21938 3.53844 1.19531 3.37094 .968125C3.10812 .633438 2.58219 .119687 2.02031 .119687C1.53 .119687 1.25531 .561875 1.25531 1.26719C1.25531 1.92469 1.62563 3.26344 1.85281 3.76563C2.25938 4.60219 2.82125 5.03281 3.2875 5.03281C4.07625 5.03281 4.23187 4.0525 4.23187 3.95688C4.23187 3.945 4.19594 3.78938 4.18406 3.76563L3.59812 1.4225ZM4.36312 4.48281C4.23187 4.79344 3.90906 5.27187 3.2875 5.27187C1.93656 5.27187 .478125 3.52656 .478125 1.75719C.478125 .57375 1.17156-.119687 1.98438-.119687C2.64188-.119687 3.20375 .394375 3.53844 .789063C3.65781 .08375 4.21969-.119687 4.57844-.119687S5.22406 .095625 5.43906 .525937C5.63031 .9325 5.79781 1.66156 5.79781 1.70938C5.79781 1.76906 5.75 1.81687 5.67812 1.81687C5.57062 1.81687 5.55875 1.75719 5.51094 1.57781C5.33156 .8725 5.10437 .119687 4.61438 .119687C4.2675 .119687 4.24375 .430313 4.24375 .669375C4.24375 .944375 4.27969 1.07594 4.38719 1.54219C4.47094 1.84094 4.53062 2.10406 4.62625 2.45062C5.06844 4.24375 5.17625 4.67406 5.17625 4.74563C5.17625 4.91313 5.04469 5.04469 4.86531 5.04469C4.48281 5.04469 4.38719 4.62625 4.36312 4.48281Z'/>
<path d='M11.00166 7.559598C11.00166 7.882411 10.72666 8.13366 10.4276 8.13366C10.08104 8.13366 9.84198 7.858661 9.84198 7.559598C9.84198 7.201161 10.14073 6.973973 10.41573 6.973973C10.73854 6.973973 11.00166 7.224911 11.00166 7.559598Z'/>
<path d='M15.5817 4.570612C15.5817 4.893425 15.3067 5.14468 15.00764 5.14468C14.66108 5.14468 14.42202 4.869675 14.42202 4.570612C14.42202 4.212175 14.72077 3.984988 14.99577 3.984988C15.31858 3.984988 15.5817 4.235925 15.5817 4.570612Z'/>
<path d='M20.16167 1.581627C20.16167 1.904439 19.88667 2.15569 19.5876 2.15569C19.24104 2.15569 19.00198 1.880689 19.00198 1.581627C19.00198 1.223189 19.30073 .996002 19.57573 .996002C19.89854 .996002 20.16167 1.246939 20.16167 1.581627Z'/>
<path d='M25.38815 .968125C25.90221 1.55406 26.32065 1.92469 26.91846 2.4625C27.63565 3.08406 27.94627 3.38313 28.11377 3.56219C28.95065 4.38719 29.36877 5.08063 29.36877 5.17625S29.27315 5.27187 29.2494 5.27187C29.16565 5.27187 29.1419 5.22406 29.0819 5.14031C28.78315 4.62625 28.49627 4.37531 28.18533 4.37531C27.9344 4.37531 27.80283 4.48281 27.57565 4.76969C27.32471 5.06844 27.12158 5.27187 26.77471 5.27187C25.90221 5.27187 25.37627 4.18406 25.37627 3.93281C25.37627 3.89687 25.38815 3.82531 25.49565 3.82531C25.59127 3.82531 25.60346 3.87313 25.63908 3.95688C25.84252 4.435 26.41627 4.51875 26.64346 4.51875C26.8944 4.51875 27.13346 4.435 27.3844 4.3275C27.83877 4.13625 28.03002 4.13625 28.14971 4.13625C28.23315 4.13625 28.28096 4.13625 28.34096 4.14813C27.94627 3.68187 27.30096 3.10812 26.76283 2.61781L25.55565 1.50625C24.826272 .765 24.384084 .059687 24.384084-.024063C24.384084-.095625 24.443772-.119687 24.515647-.119687C24.587209-.119687 24.599084-.1075 24.682834 .035937C24.87408 .334688 25.25658 .776875 25.69908 .776875C25.95002 .776875 26.06971 .693438 26.30877 .394375C26.53565 .131563 26.73908-.119687 27.12158-.119687C28.29315-.119687 28.96252 1.39875 28.96252 1.67344C28.96252 1.72125 28.95065 1.79313 28.83096 1.79313C28.73533 1.79313 28.72346 1.74531 28.68752 1.62563C28.4244 .920313 27.71908 .633438 27.25315 .633438C27.0019 .633438 26.76283 .717188 26.5119 .824687C26.03377 1.01625 25.90221 1.01625 25.7469 1.01625C25.62721 1.01625 25.49565 1.01625 25.38815 .968125Z'/>
</g>
</g>
</svg>