<?xml version='1.0' encoding='UTF-8'?>
<!-- This file was generated by dvisvgm 3.0.3 -->
<svg version='1.1' xmlns='http://www.w3.org/2000/svg' xmlns:xlink='http://www.w3.org/1999/xlink' width='85.334pt' height='12.154pt' viewBox='0 -12.154 85.334 12.154'>
<g id='page1'>
<g transform='matrix(1 0 0 -1 0 0)'>
<path d='M9.15156 3.67219H8.83594C8.49187 1.43438 8.1475 .415938 5.72344 .415938H3.7725C3.14125 .415938 3.11281 .51625 3.11281 .989688V4.86281H4.41813C5.795 4.86281 5.95281 4.41813 5.95281 3.18438H6.26844V6.95687H5.95281C5.95281 5.72344 5.795 5.27875 4.41813 5.27875H3.11281V8.77875C3.11281 9.25219 3.14125 9.3525 3.7725 9.3525H5.68031C7.78906 9.3525 8.23375 8.63531 8.44875 6.56969H8.76437L8.39125 9.76844H.588125V9.3525H.875C1.90781 9.3525 1.95094 9.20906 1.95094 8.67844V1.09031C1.95094 .559375 1.90781 .415938 .875 .415938H.588125V0H8.57781L9.15156 3.67219ZM11.9671 5.76625H13.9899V6.1825H11.9671V8.82187H11.6518C11.6374 7.47344 11.1209 6.09625 9.81555 6.05344V5.76625H11.0349V1.77875C11.0349 .186562 12.0965-.143438 12.8565-.143438C13.7602-.143438 14.2337 .745938 14.2337 1.77875V2.59625H13.918V1.8075C13.918 .774688 13.5021 .172188 12.9427 .172188C11.9671 .172188 11.9671 1.50625 11.9671 1.75V5.76625Z'/>
<path d='M26.0756 3.48563C26.0756 4.81969 26.0756 5.22125 25.7459 5.68031C25.3297 6.23969 24.6556 6.32594 24.1678 6.32594C22.7766 6.32594 22.2316 5.13531 22.1166 4.84844H22.1022V6.32594L20.1516 6.16813V5.75219C21.1269 5.75219 21.2416 5.65156 21.2416 4.94875V1.06156C21.2416 .415938 21.0837 .415938 20.1516 .415938V0C20.5244 .02875 21.2991 .02875 21.7006 .02875C22.1166 .02875 22.8913 .02875 23.2644 0V.415938C22.3463 .415938 22.1741 .415938 22.1741 1.06156V3.72937C22.1741 5.23562 23.1637 6.03906 24.0531 6.03906S25.1434 5.3075 25.1434 4.4325V1.06156C25.1434 .415938 24.9856 .415938 24.0531 .415938V0C24.4263 .02875 25.2006 .02875 25.6022 .02875C26.0184 .02875 26.7928 .02875 27.1659 0V.415938C26.4487 .415938 26.09 .415938 26.0756 .84625V3.48563ZM34.0809 3.06969C34.0809 4.92 32.6752 6.3975 31.0112 6.3975C29.2899 6.3975 27.9271 4.87719 27.9271 3.06969C27.9271 1.23375 29.3615-.143438 30.9968-.143438C32.6893-.143438 34.0809 1.26219 34.0809 3.06969ZM31.0112 .172188C30.4805 .172188 29.8349 .401563 29.419 1.10438C29.0315 1.75 29.0174 2.59625 29.0174 3.19875C29.0174 3.74375 29.0174 4.61875 29.4621 5.26438C29.8637 5.88125 30.4946 6.11062 30.9968 6.11062C31.5562 6.11062 32.1587 5.8525 32.5459 5.29313C32.9905 4.63312 32.9905 3.72937 32.9905 3.19875C32.9905 2.69688 32.9905 1.8075 32.6177 1.13312C32.2162 .444687 31.5562 .172188 31.0112 .172188ZM38.8812 6.16813V5.75219C39.8566 5.75219 39.9716 5.65156 39.9716 4.94875V2.38125C39.9716 1.16188 39.3259 .143438 38.25 .143438C37.0741 .143438 37.0022 .8175 37.0022 1.57781V6.32594L34.9797 6.16813V5.75219C36.0697 5.75219 36.0697 5.70906 36.0697 4.4325V2.28063C36.0697 1.39125 36.0697 .875 36.5 .401563C36.8444 .02875 37.4325-.143438 38.1641-.143438C38.4078-.143438 38.8669-.143438 39.3547 .2725C39.7706 .6025 40 1.1475 40 1.1475V-.143438L41.9941 0V.415938C41.0184 .415938 40.9038 .51625 40.9038 1.21938V6.32594L38.8812 6.16813ZM47.0299 6.0675C47.0299 6.32594 47.0299 6.3975 46.8865 6.3975C46.7718 6.3975 46.499 6.08187 46.3987 5.95281C45.954 6.31156 45.5093 6.3975 45.0502 6.3975C43.3146 6.3975 42.7984 5.45094 42.7984 4.66187C42.7984 4.50406 42.7984 4.00219 43.3434 3.5C43.8024 3.09844 44.2902 2.99781 44.9499 2.86875C45.739 2.71094 45.9252 2.66812 46.284 2.38125C46.5421 2.16594 46.7287 1.85031 46.7287 1.44875C46.7287 .831875 46.3699 .143438 45.1077 .143438C44.1609 .143438 43.4724 .688438 43.1568 2.12281C43.0996 2.38125 43.0996 2.39563 43.0852 2.40969C43.0565 2.46719 42.999 2.46719 42.9562 2.46719C42.7984 2.46719 42.7984 2.39563 42.7984 2.13719V.186562C42.7984-.071875 42.7984-.143438 42.9418-.143438C43.0134-.143438 43.0277-.129063 43.2718 .172188C43.3434 .2725 43.3434 .30125 43.5587 .530625C44.1037-.143438 44.8784-.143438 45.1221-.143438C46.6284-.143438 47.374 .688438 47.374 1.82187C47.374 2.59625 46.9009 3.05531 46.7718 3.18438C46.2552 3.62906 45.868 3.71531 44.9212 3.88719C44.4909 3.97344 43.4437 4.17406 43.4437 5.03469C43.4437 5.47937 43.7449 6.13938 45.0359 6.13938C46.5996 6.13938 46.6855 4.80531 46.7143 4.36062C46.7287 4.24594 46.829 4.24594 46.8721 4.24594C47.0299 4.24594 47.0299 4.3175 47.0299 4.57594V6.0675ZM50.261 3.34219C50.261 4.73375 50.8348 6.03906 51.9391 6.03906C52.0538 6.03906 52.0826 6.03906 52.1401 6.02469C52.0251 5.96719 51.7957 5.88125 51.7957 5.49375C51.7957 5.07781 52.1257 4.92 52.3551 4.92C52.642 4.92 52.9288 5.10656 52.9288 5.49375C52.9288 5.92406 52.5416 6.32594 51.9248 6.32594C50.7057 6.32594 50.2895 5.00625 50.2035 4.73375H50.1891V6.32594L48.267 6.16813V5.75219C49.2426 5.75219 49.3573 5.65156 49.3573 4.94875V1.06156C49.3573 .415938 49.1995 .415938 48.267 .415938V0C48.6685 .02875 49.4576 .02875 49.8879 .02875C50.2751 .02875 51.2938 .02875 51.6235 0V.415938H51.3366C50.2895 .415938 50.261 .57375 50.261 1.09031V3.34219ZM58.8221 3.32781C59.1377 3.32781 59.1665 3.32781 59.1665 3.60031C59.1665 5.04906 58.3918 6.3975 56.6562 6.3975C55.0209 6.3975 53.7587 4.92 53.7587 3.14125C53.7587 1.24781 55.2218-.143438 56.814-.143438C58.5209-.143438 59.1665 1.40562 59.1665 1.70687C59.1665 1.79313 59.0946 1.85031 59.0087 1.85031C58.894 1.85031 58.8652 1.77875 58.8365 1.70687C58.4637 .502187 57.5024 .172188 56.9002 .172188C56.2977 .172188 54.849 .57375 54.849 3.05531V3.32781H58.8221ZM54.863 3.60031C54.978 5.8525 56.2402 6.11062 56.6418 6.11062C58.1768 6.11062 58.2627 4.08813 58.2771 3.60031H54.863Z'/>
<path d='M52.26263 6.33117C52.26263 7.72274 52.83638 9.02805 53.94075 9.02805C54.05544 9.02805 54.08419 9.02805 54.14169 9.01367C54.02669 8.95617 53.79732 8.87024 53.79732 8.48274C53.79732 8.0668 54.12732 7.90899 54.35669 7.90899C54.64357 7.90899 54.93044 8.09555 54.93044 8.48274C54.93044 8.91305 54.54325 9.31492 53.92638 9.31492C52.70732 9.31492 52.29107 7.99524 52.20513 7.72274H52.19075V9.31492L50.268566 9.15711V8.74117C51.24419 8.74117 51.35888 8.64055 51.35888 7.93774V4.05055C51.35888 3.404923 51.20107 3.404923 50.268566 3.404923V2.988986C50.670129 3.017736 51.45919 3.017736 51.8895 3.017736C52.27669 3.017736 53.29544 3.017736 53.62513 2.988986V3.404923H53.33825C52.29107 3.404923 52.26263 3.562736 52.26263 4.0793V6.33117ZM60.8237 6.3168C61.1393 6.3168 61.1681 6.3168 61.1681 6.5893C61.1681 8.03805 60.3934 9.38649 58.65778 9.38649C57.02247 9.38649 55.76028 7.90899 55.76028 6.13024C55.76028 4.2368 57.22341 2.845548 58.8156 2.845548C60.5225 2.845548 61.1681 4.39461 61.1681 4.69586C61.1681 4.78211 61.0962 4.8393 61.0103 4.8393C60.8956 4.8393 60.8668 4.76774 60.8381 4.69586C60.4653 3.491173 59.50404 3.161173 58.90185 3.161173C58.29935 3.161173 56.8506 3.562736 56.8506 6.0443V6.3168H60.8237ZM56.86466 6.5893C56.97966 8.84149 58.24185 9.09961 58.64341 9.09961C60.1784 9.09961 60.2643 7.07711 60.2787 6.5893H56.86466Z'/>
<path d='M54.25561 9.32016C54.25561 10.71172 54.82936 12.01703 55.93374 12.01703C56.04843 12.01703 56.07718 12.01703 56.13467 12.00266C56.01968 11.94516 55.7903 11.85922 55.7903 11.47172C55.7903 11.05578 56.1203 10.89797 56.34968 10.89797C56.63655 10.89797 56.92343 11.08453 56.92343 11.47172C56.92343 11.90203 56.53624 12.30391 55.91936 12.30391C54.7003 12.30391 54.28405 10.98422 54.19811 10.71172H54.18374V12.30391L52.26155 12.1461V11.73016C53.23717 11.73016 53.35186 11.62953 53.35186 10.92672V7.03953C53.35186 6.393909 53.19405 6.393909 52.26155 6.393909V5.977971C52.663113 6.006721 53.45218 6.006721 53.88249 6.006721C54.26967 6.006721 55.28843 6.006721 55.61811 5.977971V6.393909H55.33124C54.28405 6.393909 54.25561 6.551721 54.25561 7.06828V9.32016ZM62.8167 9.30578C63.1323 9.30578 63.1611 9.30578 63.1611 9.57828C63.1611 11.02703 62.3864 12.37547 60.65077 12.37547C59.01546 12.37547 57.75327 10.89797 57.75327 9.11922C57.75327 7.22578 59.21639 5.834534 60.80858 5.834534C62.5155 5.834534 63.1611 7.3836 63.1611 7.68485C63.1611 7.7711 63.0892 7.82828 63.0033 7.82828C62.8886 7.82828 62.8598 7.75672 62.8311 7.68485C62.4583 6.480159 61.49702 6.150159 60.89483 6.150159C60.29233 6.150159 58.84358 6.551721 58.84358 9.03328V9.30578H62.8167ZM58.85764 9.57828C58.97264 11.83047 60.23483 12.0886 60.63639 12.0886C62.1714 12.0886 62.2573 10.0661 62.2717 9.57828H58.85764Z'/>
<path d='M53.7275 4.81969C53.85656 5.13531 54.10031 5.75219 55.01844 5.76625V6.1825C54.6025 6.15375 54.40156 6.15375 53.95687 6.15375C53.65562 6.15375 53.44063 6.15375 52.78062 6.1825V5.76625C53.38312 5.73781 53.455 5.3075 53.455 5.14969C53.455 5.02063 53.42625 4.94875 53.35437 4.77656L51.89125 1.07594L50.28469 5.12094C50.21312 5.32188 50.19875 5.32188 50.19875 5.39344C50.19875 5.76625 50.74375 5.76625 51.00219 5.76625V6.1825C50.64344 6.15375 49.8975 6.15375 49.51031 6.15375C49.03688 6.15375 49.00812 6.15375 48.133125 6.1825V5.76625C48.93656 5.76625 49.08 5.70906 49.25219 5.26438L51.30344 .129063C51.375-.071875 51.40375-.143438 51.57594-.143438C51.67625-.143438 51.76219-.114688 51.86281 .129063L53.7275 4.81969Z'/>
<path d='M61.4858 3.06969C61.4858 4.92 60.0802 6.3975 58.4161 6.3975C56.69484 6.3975 55.33203 4.87719 55.33203 3.06969C55.33203 1.23375 56.76641-.143438 58.4017-.143438C60.0942-.143438 61.4858 1.26219 61.4858 3.06969ZM58.4161 .172188C57.8855 .172188 57.23984 .401563 56.82391 1.10438C56.43641 1.75 56.42234 2.59625 56.42234 3.19875C56.42234 3.74375 56.42234 4.61875 56.86703 5.26438C57.26859 5.88125 57.8995 6.11062 58.4017 6.11062C58.9611 6.11062 59.5636 5.8525 59.9508 5.29313C60.3955 4.63312 60.3955 3.72937 60.3955 3.19875C60.3955 2.69688 60.3955 1.8075 60.0227 1.13312C59.6211 .444687 58.9611 .172188 58.4161 .172188ZM64.4215 8.83594C64.4215 9.20906 64.1202 9.53906 63.7187 9.53906C63.3455 9.53906 63.0299 9.23781 63.0299 8.85031C63.0299 8.42 63.3743 8.1475 63.7187 8.1475C64.1634 8.1475 64.4215 8.52063 64.4215 8.83594ZM62.4418 6.16813V5.75219C63.3599 5.75219 63.489 5.66594 63.489 4.96313V1.06156C63.489 .415938 63.3312 .415938 62.399 .415938V0C62.8005 .02875 63.489 .02875 63.9049 .02875C64.0627 .02875 64.8949 .02875 65.3824 0V.415938C64.4502 .415938 64.3927 .487812 64.3927 1.04719V6.32594L62.4418 6.16813ZM68.2948 9.955L66.3011 9.79719V9.38125C67.2764 9.38125 67.3911 9.28063 67.3911 8.57781V1.06156C67.3911 .415938 67.2333 .415938 66.3011 .415938V0C66.7027 .02875 67.4055 .02875 67.8358 .02875S68.9833 .02875 69.3852 0V.415938C68.467 .415938 68.2948 .415938 68.2948 1.06156V9.955ZM73.617 7.33L73.8466 7.545L72.1395 9.75406C72.0679 9.84031 71.9388 9.99781 71.7379 9.99781C71.4941 9.99781 71.2504 9.78281 71.2504 9.52469C71.2504 9.38125 71.3076 9.25219 71.451 9.13719L73.617 7.33Z'/>
<path d='M75.2527 3.83C75.2527 4.60437 75.2527 5.17844 74.6215 5.73781C74.1196 6.19688 73.474 6.3975 72.843 6.3975C71.6668 6.3975 70.763 5.62281 70.763 4.69063C70.763 4.27469 71.0355 4.07375 71.3655 4.07375C71.7096 4.07375 71.9537 4.3175 71.9537 4.66187C71.9537 5.25 71.4371 5.25 71.2221 5.25C71.5518 5.8525 72.2405 6.11062 72.8143 6.11062C73.474 6.11062 74.3202 5.56563 74.3202 4.27469V3.70094C71.4371 3.65781 70.3471 2.45281 70.3471 1.34844C70.3471 .215312 71.6668-.143438 72.5418-.143438C73.4884-.143438 74.134 .430313 74.4065 1.11875C74.4637 .444687 74.9084-.071875 75.5252-.071875C75.8265-.071875 76.6584 .129063 76.6584 1.27656V2.08H76.343V1.27656C76.343 .459062 75.9987 .344375 75.7977 .344375C75.2527 .344375 75.2527 1.10438 75.2527 1.31969V3.83ZM74.3202 2.0225C74.3202 .616875 73.2734 .143438 72.6565 .143438C71.9537 .143438 71.3655 .659688 71.3655 1.34844C71.3655 3.24187 73.804 3.41406 74.3202 3.4425V2.0225Z'/>
<path d='M84.0555 9.58187C84.0555 10.0409 83.6683 10.2563 83.367 10.2563C83.0658 10.2563 82.6211 10.0553 82.6639 9.45281L83.1805 2.88313C83.1948 2.63937 83.2236 2.58188 83.3527 2.58188C83.4961 2.58188 83.5248 2.625 83.5389 2.88313L84.0555 9.58187ZM84.0555 .702812C84.0555 1.07594 83.7398 1.39125 83.367 1.39125C82.9652 1.39125 82.6639 1.07594 82.6639 .688438C82.6639 .315625 82.9795 0 83.3527 0C83.7542 0 84.0555 .315625 84.0555 .702812Z'/>
</g>
</g>
</svg>