<?xml version='1.0' encoding='UTF-8'?>
<!-- This file was generated by dvisvgm 3.0.3 -->
<svg version='1.1' xmlns='http://www.w3.org/2000/svg' xmlns:xlink='http://www.w3.org/1999/xlink' width='95.954pt' height='15.11pt' viewBox='0 -15.11 95.954 15.11'>
<g id='page8'>
<g transform='matrix(1 0 0 -1 0 0)'>
<path d='M14.52728 7.70429H14.21728C14.07947 5.99991 13.85572 3.796473 10.91228 3.796473H9.31134C8.62259 3.796473 8.58822 3.882723 8.58822 4.46804V13.8671C8.58822 14.4868 8.62259 14.6587 9.93103 14.6587H10.30978V15.1065C9.60384 15.0721 8.77759 15.0721 8.07165 15.0721C7.53822 15.0721 6.57415 15.0721 6.074779 15.1065V14.6587C7.26259 14.6587 7.45197 14.6587 7.45197 13.8843V4.57116C7.45197 3.796473 7.26259 3.796473 6.074779 3.796473V3.348973H14.11415L14.52728 7.70429ZM22.5324 7.03272C22.5324 9.23616 20.9314 10.95772 19.0552 10.95772C17.1786 10.95772 15.5777 9.23616 15.5777 7.03272C15.5777 4.86397 17.1786 3.211161 19.0552 3.211161C20.9314 3.211161 22.5324 4.86397 22.5324 7.03272ZM19.0552 3.521161C18.2461 3.521161 17.5574 4.003036 17.1614 4.6746C16.7311 5.44897 16.6795 6.41304 16.6795 7.17054C16.6795 7.89366 16.7139 8.78866 17.1614 9.56335C17.5058 10.13147 18.177 10.68241 19.0552 10.68241C19.8299 10.68241 20.4839 10.25179 20.897 9.64929C21.4308 8.84022 21.4308 7.70429 21.4308 7.17054C21.4308 6.49929 21.3961 5.46647 20.9314 4.63991C20.4495 3.848036 19.7092 3.521161 19.0552 3.521161ZM25.5901 7.41147C25.5901 9.06429 26.2957 10.61335 27.587 10.61335C27.7073 10.61335 27.8279 10.59616 27.9485 10.5446C27.9485 10.5446 27.5698 10.42397 27.5698 9.97647C27.5698 9.56335 27.8967 9.39116 28.1551 9.39116C28.3617 9.39116 28.7404 9.51179 28.7404 9.99366C28.7404 10.5446 28.1895 10.88897 27.6042 10.88897C26.2957 10.88897 25.7279 9.61491 25.5557 9.01241H25.5385V10.88897L23.5417 10.6996V10.25179C24.5573 10.25179 24.7123 10.14866 24.7123 9.32241V4.53679C24.7123 3.882723 24.6432 3.796473 23.5417 3.796473V3.348973C23.9548 3.383348 24.7467 3.383348 25.1942 3.383348C25.6932 3.383348 26.5713 3.383348 27.036 3.348973V3.796473C25.7967 3.796473 25.5901 3.796473 25.5901 4.57116V7.41147ZM35.6626 7.39429C35.7313 7.46335 35.7313 7.49772 35.7313 7.66991C35.7313 9.42554 34.8017 10.95772 32.8395 10.95772C31.0148 10.95772 29.5685 9.21897 29.5685 7.10179C29.5685 4.86397 31.2038 3.211161 33.0288 3.211161C34.9567 3.211161 35.7142 5.03585 35.7142 5.39741C35.7142 5.51804 35.6107 5.51804 35.5763 5.51804C35.456 5.51804 35.4388 5.48366 35.3698 5.2771C34.991 4.106473 34.0445 3.521161 33.1492 3.521161C32.4092 3.521161 31.6688 3.934286 31.2038 4.69179C30.6704 5.5696 30.6704 6.58522 30.6704 7.39429H35.6626ZM30.6876 7.65241C30.8082 10.13147 32.1335 10.68241 32.8223 10.68241C33.9926 10.68241 34.7845 9.58054 34.8017 7.65241H30.6876ZM47.737 8.5821C47.737 9.44272 47.582 10.88897 45.5336 10.88897C44.363 10.88897 43.5539 10.0971 43.2442 9.16741H43.227C43.0205 10.57897 42.0045 10.88897 41.0408 10.88897C39.6808 10.88897 38.9749 9.83866 38.7167 9.15022H38.6995V10.88897L36.6683 10.6996V10.25179C37.6839 10.25179 37.8389 10.14866 37.8389 9.32241V4.53679C37.8389 3.882723 37.7699 3.796473 36.6683 3.796473V3.348973C37.0814 3.383348 37.8389 3.383348 38.2864 3.383348S39.5086 3.383348 39.9217 3.348973V3.796473C38.8202 3.796473 38.7511 3.865536 38.7511 4.53679V7.84179C38.7511 9.42554 39.7152 10.61335 40.9202 10.61335C42.1939 10.61335 42.3317 9.47741 42.3317 8.65085V4.53679C42.3317 3.882723 42.263 3.796473 41.1611 3.796473V3.348973C41.5742 3.383348 42.3317 3.383348 42.7792 3.383348C43.227 3.383348 44.0014 3.383348 44.4149 3.348973V3.796473C43.313 3.796473 43.2442 3.865536 43.2442 4.53679V7.84179C43.2442 9.42554 44.208 10.61335 45.413 10.61335C46.687 10.61335 46.8249 9.47741 46.8249 8.65085V4.53679C46.8249 3.882723 46.7558 3.796473 45.6542 3.796473V3.348973C46.0674 3.383348 46.8249 3.383348 47.2724 3.383348S48.4945 3.383348 48.9077 3.348973V3.796473C47.8058 3.796473 47.737 3.865536 47.737 4.53679V8.5821Z'/>
<path d='M57.2517 13.953C57.2517 14.3318 56.942 14.6587 56.546 14.6587C56.1673 14.6587 55.8401 14.349 55.8401 13.953C55.8401 13.5743 56.1501 13.2471 56.546 13.2471C56.9248 13.2471 57.2517 13.5571 57.2517 13.953ZM55.2376 10.6996V10.25179C56.2017 10.25179 56.3395 10.14866 56.3395 9.32241V4.53679C56.3395 3.882723 56.2704 3.796473 55.1688 3.796473V3.348973C55.582 3.383348 56.3223 3.383348 56.7526 3.383348C57.1657 3.383348 57.8713 3.383348 58.2673 3.348973V3.796473C57.2517 3.796473 57.2173 3.899911 57.2173 4.5196V10.88897L55.2376 10.6996ZM62.6677 .4396C61.5658 .4396 61.497 .50866 61.497 1.17991V4.39897C61.9964 3.676161 62.7192 3.211161 63.6317 3.211161C65.353 3.211161 67.0917 4.72616 67.0917 7.06741C67.0917 9.23616 65.5942 10.88897 63.8211 10.88897C62.7883 10.88897 61.9445 10.32085 61.4627 9.6321V10.88897L59.4142 10.6996V10.25179C60.4299 10.25179 60.5849 10.14866 60.5849 9.32241V1.17991C60.5849 .52585 60.5158 .4396 59.4142 .4396V-.0079C59.8274 .02647 60.5849 .02647 61.0324 .02647S62.2545 .02647 62.6677-.0079V.4396ZM61.497 8.75429C61.497 8.99522 61.497 9.35679 62.1683 9.99366C62.2545 10.06272 62.8399 10.57897 63.7005 10.57897C64.957 10.57897 65.9899 9.01241 65.9899 7.04991C65.9899 5.08772 64.8883 3.486786 63.5283 3.486786C62.9086 3.486786 62.2374 3.779286 61.7208 4.58835C61.497 4.9671 61.497 5.07054 61.497 5.34585V8.75429ZM72.9952 10.61335C72.9952 10.92335 72.9777 10.94054 72.8745 10.94054C72.8058 10.94054 72.7886 10.92335 72.5817 10.66522C72.5302 10.59616 72.3752 10.42397 72.3236 10.35522C71.7727 10.94054 70.9983 10.95772 70.7055 10.95772C68.7949 10.95772 68.1061 9.95929 68.1061 8.96085C68.1061 7.41147 69.862 7.04991 70.3611 6.94679C71.4458 6.72304 71.8245 6.65429 72.1861 6.34429C72.4099 6.13772 72.7886 5.75897 72.7886 5.13929C72.7886 4.41616 72.3752 3.486786 70.7917 3.486786C69.2939 3.486786 68.7602 4.62272 68.4505 6.13772C68.3989 6.37866 68.3989 6.39585 68.2611 6.39585S68.1061 6.37866 68.1061 6.03429V3.555536C68.1061 3.245536 68.1233 3.228348 68.2267 3.228348C68.3127 3.228348 68.3299 3.245536 68.4161 3.383348C68.5192 3.538348 68.7777 3.951473 68.8808 4.123661C69.2252 3.658973 69.8277 3.211161 70.7917 3.211161C72.4958 3.211161 73.4083 4.140848 73.4083 5.48366C73.4083 6.36147 72.9433 6.82616 72.7195 7.03272C72.2033 7.56647 71.6008 7.6871 70.8777 7.8246C69.9308 8.03116 68.7258 8.27241 68.7258 9.32241C68.7258 9.76991 68.9667 10.71679 70.7055 10.71679C72.5474 10.71679 72.6508 8.99522 72.6852 8.44429C72.7024 8.35835 72.7886 8.34116 72.8402 8.34116C72.9952 8.34116 72.9952 8.39272 72.9952 8.68554V10.61335ZM78.9239 10.6996V10.25179C79.9395 10.25179 80.0945 10.14866 80.0945 9.32241V6.18929C80.0945 4.74335 79.3199 3.486786 78.0461 3.486786C76.6345 3.486786 76.5139 4.330223 76.5139 5.22522V10.88897L74.4311 10.6996V10.25179C75.1195 10.25179 75.5845 10.25179 75.6017 9.56335V6.25835C75.6017 5.10491 75.6017 4.3646 76.0492 3.882723C76.273 3.658973 76.7033 3.211161 77.9427 3.211161C79.4061 3.211161 79.9742 4.45085 80.1117 4.8121H80.1289V3.211161L82.1777 3.348973V3.796473C81.1617 3.796473 81.007 3.899911 81.007 4.72616V10.88897L78.9239 10.6996ZM94.2952 8.5821C94.2952 9.44272 94.1402 10.88897 92.0917 10.88897C90.9211 10.88897 90.112 10.0971 89.8024 9.16741H89.7852C89.5786 10.57897 88.5627 10.88897 87.5989 10.88897C86.2389 10.88897 85.533 9.83866 85.2749 9.15022H85.2577V10.88897L83.2264 10.6996V10.25179C84.242 10.25179 84.397 10.14866 84.397 9.32241V4.53679C84.397 3.882723 84.328 3.796473 83.2264 3.796473V3.348973C83.6395 3.383348 84.397 3.383348 84.8445 3.383348S86.0667 3.383348 86.4799 3.348973V3.796473C85.3783 3.796473 85.3092 3.865536 85.3092 4.53679V7.84179C85.3092 9.42554 86.2733 10.61335 87.4783 10.61335C88.752 10.61335 88.8899 9.47741 88.8899 8.65085V4.53679C88.8899 3.882723 88.8211 3.796473 87.7192 3.796473V3.348973C88.1324 3.383348 88.8899 3.383348 89.3374 3.383348C89.7852 3.383348 90.5595 3.383348 90.973 3.348973V3.796473C89.8711 3.796473 89.8024 3.865536 89.8024 4.53679V7.84179C89.8024 9.42554 90.7661 10.61335 91.9711 10.61335C93.2452 10.61335 93.383 9.47741 93.383 8.65085V4.53679C93.383 3.882723 93.3139 3.796473 92.2124 3.796473V3.348973C92.6255 3.383348 93.383 3.383348 93.8305 3.383348S95.0527 3.383348 95.4658 3.348973V3.796473C94.3639 3.796473 94.2952 3.865536 94.2952 4.53679V8.5821Z'/>
</g>
</g>
</svg>