<?xml version='1.0' encoding='UTF-8'?>
<!-- This file was generated by dvisvgm 3.0.3 -->
<svg version='1.1' xmlns='http://www.w3.org/2000/svg' xmlns:xlink='http://www.w3.org/1999/xlink' width='13.553pt' height='2.989pt' viewBox='0 -2.989 13.553 2.989'>
<g id='page14'>
<g transform='matrix(1 0 0 -1 0 0)'>
<path d='M.199219 0V2.98828' stroke='#000' fill='none' stroke-width='.398' stroke-miterlimit='10'/>
<path d='M.398437 .199219H13.1523' stroke='#000' fill='none' stroke-width='.398' stroke-miterlimit='10'/>
<path d='M13.355469 0V2.98828' stroke='#000' fill='none' stroke-width='.398' stroke-miterlimit='10'/>
</g>
</g>
</svg>