<?xml version='1.0' encoding='UTF-8'?>
<!-- This file was generated by dvisvgm 3.0.3 -->
<svg version='1.1' xmlns='http://www.w3.org/2000/svg' xmlns:xlink='http://www.w3.org/1999/xlink' width='6.178pt' height='8.302pt' viewBox='0 -8.302 6.178 8.302'>
<g id='page2'>
<g transform='matrix(1 0 0 -1 0 0)'>
<path d='M3.40271 6.10844L3.59396 6.28781L2.17146 8.12875C2.11146 8.20063 2.00396 8.33187 1.83646 8.33187C1.63333 8.33187 1.43021 8.15281 1.43021 7.9375C1.43021 7.81781 1.47802 7.71031 1.5974 7.61469L3.40271 6.10844Z'/>
<path d='M3.34826 2.82125C3.69482 3.27531 4.19701 3.92094 4.42419 4.17188C4.91419 4.72188 5.47607 4.80562 5.85857 4.80562V5.15219C5.34451 5.12844 5.32076 5.12844 4.85451 5.12844C4.40013 5.12844 4.37638 5.12844 3.77857 5.15219V4.80562C3.93388 4.78156 4.12513 4.71 4.12513 4.435C4.12513 4.23187 4.01763 4.10031 3.94607 4.00469L3.18076 3.03625L2.24857 4.2675C2.21263 4.31531 2.14076 4.42312 2.14076 4.50656C2.14076 4.57844 2.20076 4.79344 2.55919 4.80562V5.15219C2.26044 5.12844 1.65076 5.12844 1.32794 5.12844C.933568 5.12844 .909506 5.12844 .180443 5.15219V4.80562C.790131 4.80562 1.017318 4.78156 1.26826 4.45875L2.66669 2.63C2.69076 2.60594 2.73857 2.53437 2.73857 2.49844C2.73857 2.4625 1.80607 1.29094 1.68669 1.13563C1.160756 .49 .634506 .35875 .120756 .346563V0C.574818 .024063 .598881 .024063 1.112943 .024063C1.56701 .024063 1.59107 .024063 2.18857 0V.346563C1.90169 .3825 1.85388 .561875 1.85388 .729062C1.85388 .920313 1.93763 1.01625 2.05732 1.17156C2.23638 1.4225 2.63107 1.9125 2.91794 2.28312L3.89794 1.00406C4.10138 .74125 4.10138 .717188 4.10138 .645625C4.10138 .55 4.00576 .35875 3.68294 .346563V0C3.99388 .024063 4.57951 .024063 4.91419 .024063C5.30857 .024063 5.33263 .024063 6.04982 0V.346563C5.41638 .346563 5.20107 .370625 4.91419 .753125L3.34826 2.82125Z'/>
</g>
</g>
</svg>