<?xml version='1.0' encoding='UTF-8'?>
<!-- This file was generated by dvisvgm 3.0.3 -->
<svg version='1.1' xmlns='http://www.w3.org/2000/svg' xmlns:xlink='http://www.w3.org/1999/xlink' width='6.178pt' height='7.181pt' viewBox='0 -7.181 6.178 7.181'>
<g id='page10'>
<g transform='matrix(1 0 0 -1 0 0)'>
<path d='M3.79926 1.783086H3.02238V1.197148C3.60801 1.185273 3.99051 .92215 3.99051 .53965C3.99051 .16934 3.71551-.12973 2.40051-.12973H2.04207V-.36879H2.54426C3.85894-.36879 4.76769-.16566 4.76769 .53965C4.76769 1.197148 3.97863 1.340586 3.79926 1.376523V1.783086Z'/>
<path d='M3.34371 4.85527C3.69027 5.30934 4.19246 5.95496 4.41965 6.2059C4.90965 6.7559 5.47152 6.83965 5.85402 6.83965V7.18621C5.33996 7.16246 5.31621 7.16246 4.84996 7.16246C4.39558 7.16246 4.37183 7.16246 3.77402 7.18621V6.83965C3.92933 6.81559 4.12058 6.74402 4.12058 6.46902C4.12058 6.2659 4.01308 6.13434 3.94152 6.03871L3.17621 5.07027L2.24402 6.30152C2.20808 6.34934 2.13621 6.45715 2.13621 6.54059C2.13621 6.61246 2.19621 6.82746 2.55465 6.83965V7.18621C2.2559 7.16246 1.64621 7.16246 1.323396 7.16246C.929021 7.16246 .904959 7.16246 .175896 7.18621V6.83965C.785584 6.83965 1.012771 6.81559 1.263709 6.49277L2.66215 4.66402C2.68621 4.63996 2.73402 4.5684 2.73402 4.53246S1.80152 3.32496 1.68215 3.16965C1.156209 2.524023 .629959 2.392773 .116209 2.380586V2.034023C.570271 2.058086 .594334 2.058086 1.108396 2.058086C1.56246 2.058086 1.58652 2.058086 2.18402 2.034023V2.380586C1.89715 2.416523 1.84933 2.595898 1.84933 2.763086C1.84933 2.954336 1.93308 3.05027 2.05277 3.20559C2.23183 3.45652 2.62652 3.94652 2.9134 4.31715L3.8934 3.03809C4.09683 2.775273 4.09683 2.751211 4.09683 2.679648C4.09683 2.584023 4.00121 2.392773 3.6784 2.380586V2.034023C3.98933 2.058086 4.57496 2.058086 4.90965 2.058086C5.30402 2.058086 5.32808 2.058086 6.04527 2.034023V2.380586C5.41183 2.380586 5.19652 2.404648 4.90965 2.787148L3.34371 4.85527Z'/>
</g>
</g>
</svg>